BDBV_2007_FJ217161
BDBV_2012_KC545393
BDBV_2012_KC545395
BDBV_2012_KC545394
BDBV_2012_KC545396
TAFV_1994_FJ217162
EBOV_1976_KC242801
EBOV_1976_NC002549
EBOV_1977_KC242791
EBOV_1994_KC242792
EBOV_1996_KC242793
EBOV_1996_KC242794
EBOV_1995_AY354458
EBOV_1995_JQ352763
EBOV_1995_KC242796
EBOV_1995_KC242799
EBOV_2007_HQ613403
EBOV_2007_KC242784
EBOV_2007_KC242786
EBOV_2007_KC242787
EBOV_2007_KC242789
EBOV_2007_KC242785
EBOV_2007_KC242790
EBOV_2007_KC242788
EBOV_2008_HQ613402
EBOV_2002_KC242800
EBOV_2014_EM095
EBOV_2014_G3676
EBOV_2014_G3680
EBOV_2014_G3686
EBOV_2014_G3687
EBOV_2014_G3683
EBOV_2014_EM096
EBOV_2014_EM098
EBOV_2014_EM104
EBOV_2014_EM106
EBOV_2014_EM112
EBOV_2014_EM113
EBOV_2014_EM124
EBOV_2014_G3677
EBOV_2014_G3682
EBOV_2014_G3707
EBOV_2014_G3713
EBOV_2014_G3724
EBOV_2014_G3734
EBOV_2014_G3735
EBOV_2014_G3750
EBOV_2014_G3758
EBOV_2014_G3764
EBOV_2014_G3769
EBOV_2014_G3782
EBOV_2014_G3786
EBOV_2014_G3788
EBOV_2014_G3796
EBOV_2014_G3798
EBOV_2014_G3799
EBOV_2014_G3800
EBOV_2014_G3805
EBOV_2014_G3807
EBOV_2014_G3810
EBOV_2014_G3820
EBOV_2014_G3838
EBOV_2014_G3840
EBOV_2014_G3841
EBOV_2014_G3848
EBOV_2014_NM042
EBOV_2014_G3850
EBOV_2014_EM110
EBOV_2014_EM111
EBOV_2014_EM119
EBOV_2014_G3729
EBOV_2014_G3765
EBOV_2014_G3770
EBOV_2014_G3789
EBOV_2014_G3825
EBOV_2014_G3845
EBOV_2014_G3851
EBOV_2014_G3857
EBOV_2014_EM115
EBOV_2014_EM120
EBOV_2014_G3752
EBOV_2014_G3795
EBOV_2014_G3808
EBOV_2014_G3823
EBOV_2014_EM121
EBOV_2014_G3771
EBOV_2014_G3816
EBOV_2014_G3829
EBOV_2014_G3846
EBOV_2014_G3856
EBOV_2014_G3826
EBOV_2014_G3827
EBOV_2014_G3809
EBOV_2014_G3814
EBOV_2014_G3821
EBOV_2014_G3822
EBOV_2014_G3679
EBOV_2014_G3819
EBOV_2014_G3817
EBOV_2014_G3834
EBOV_2014_G3818
EBOV_2014_G3787
EBOV_2014_G3831
EBOV_2014_G3670
EBOV_2014_KJ660346
EBOV_2014_KJ660347
EBOV_2014_KJ660348
RESTV_1990_AF522874
RESTV_1996_AB050936
RESTV_1996_JX477166
RESTV_2008_FJ621585
RESTV_2008_FJ621583
RESTV_2009_JX477165
RESTV_2008_FJ621584
SUDV_1976_FJ968794
SUDV_1979_KC242783
SUDV_2004_EU338380
SUDV_2000_AY729654
SUDV_2011_JN638998
SUDV_2012_KC545389
SUDV_2012_KC545390
SUDV_2012_KC545391
SUDV_2012_KC545392
