100
0 2 2 264 270 278 223 241 222 221 509 361 357 358 360 361 362 366 551 413 625 565 608 560 1056 608 593 749 609 647 567 598 599 563 567 574 565 564 641 563 671 582 565 596 570 607 589 607 650 575 594 707 598 600 594 605 575 643 565 594 768 605 606 610 571 714 563 706 568 605 598 685 634 605 631 622 637 567 606 619 722 577 564 563 589 645 690 606 659 568 604 641 637 600 574 631 571 594 820 821 
2 0 2 264 270 278 223 241 222 221 509 361 357 358 360 361 362 366 551 413 625 565 608 560 1056 608 593 749 609 647 567 598 599 563 567 574 565 564 641 563 671 582 565 596 570 607 589 607 650 575 594 707 598 600 594 605 575 643 565 594 768 605 606 610 571 714 563 706 568 605 598 685 634 605 631 622 637 567 606 619 722 577 564 563 589 645 690 606 659 568 604 641 637 600 574 631 571 594 820 821 
2 2 0 263 270 278 223 241 222 221 509 361 357 358 360 361 362 366 551 413 625 565 608 560 1056 608 593 749 609 647 567 598 599 563 567 574 565 564 641 563 671 582 565 596 570 607 589 607 650 575 594 707 598 600 594 605 575 643 565 594 768 605 606 610 571 714 563 706 568 605 598 685 634 605 631 622 637 567 606 619 722 577 564 563 589 645 690 606 659 568 604 641 637 600 574 631 571 594 820 821 
264 264 263 0 36 69 183 199 180 179 600 453 449 450 452 453 454 456 642 501 705 645 688 640 1131 688 673 829 689 727 647 678 679 643 647 654 645 644 721 643 751 662 645 676 650 687 669 687 730 655 674 787 678 680 674 685 655 723 645 674 847 685 686 690 651 793 643 785 648 685 678 765 714 685 711 702 717 647 686 699 802 657 644 643 669 725 770 686 739 648 684 721 717 680 654 711 651 674 903 904 
270 270 270 36 0 75 189 205 186 185 606 459 455 456 458 459 460 462 648 508 710 650 693 645 1137 693 678 834 694 732 652 683 684 648 652 659 650 649 726 648 756 667 650 681 655 692 674 692 735 660 679 792 683 685 679 690 660 728 650 679 852 690 691 695 656 798 648 790 653 690 683 770 719 690 716 707 722 652 691 704 807 662 649 648 674 730 775 691 744 653 689 726 722 685 659 716 656 679 909 910 
278 278 278 69 75 0 196 212 193 192 614 468 464 465 467 468 467 471 656 516 717 657 700 652 1145 700 685 841 701 739 659 690 691 655 659 666 657 656 733 655 763 674 657 688 662 699 681 699 742 667 686 799 690 692 686 697 667 735 657 686 860 697 698 702 663 806 655 798 660 697 690 777 726 697 723 714 729 659 698 711 814 669 656 655 681 737 782 698 751 660 696 733 729 692 666 723 663 686 916 917 
223 223 223 183 189 196 0 21 11 10 556 409 405 406 408 409 408 414 598 461 662 602 645 597 1094 645 630 786 646 684 604 635 636 600 604 611 602 601 678 600 708 619 602 633 607 644 626 644 687 612 631 744 635 637 631 642 612 680 602 631 804 642 643 647 608 750 600 742 605 642 635 722 671 642 668 659 674 604 643 656 759 614 601 600 626 682 727 643 696 605 641 678 674 637 611 668 608 631 861 862 
241 241 241 199 205 212 21 0 27 26 540 427 423 424 426 427 426 432 582 479 646 600 629 610 1076 627 614 768 630 666 608 619 620 610 606 604 615 613 660 612 690 604 610 617 604 628 611 628 669 603 615 726 619 621 615 627 600 662 612 615 786 629 628 631 602 732 616 724 609 629 620 704 653 641 650 642 656 608 628 640 741 602 615 614 611 664 709 646 678 612 624 660 656 648 608 650 606 616 877 878 
222 222 222 180 186 193 11 27 0 1 555 408 404 405 407 408 407 413 597 460 659 599 642 594 1091 642 627 783 643 681 601 632 633 597 601 608 599 598 675 597 705 616 599 630 604 641 623 641 684 609 628 741 632 634 628 639 609 677 599 628 801 639 640 644 605 747 597 739 602 639 632 719 668 639 665 656 671 601 640 653 756 611 598 597 623 679 724 640 693 602 638 675 671 634 608 665 605 628 858 859 
221 221 221 179 185 192 10 26 1 0 554 407 403 404 406 407 406 412 596 459 658 598 641 593 1090 641 626 782 642 680 600 631 632 596 600 607 598 597 674 596 704 615 598 629 603 640 622 640 683 608 627 740 631 633 627 638 608 676 598 627 800 638 639 643 604 746 596 738 601 638 631 718 667 638 664 655 670 600 639 652 755 610 597 596 622 678 723 639 692 601 637 674 670 633 607 664 604 627 857 858 
509 509 509 600 606 614 556 540 555 554 0 154 154 153 155 156 157 161 44 556 656 675 634 684 963 634 655 650 643 603 683 652 651 685 681 676 687 688 607 687 595 666 685 656 678 641 661 641 606 675 654 606 650 652 654 643 675 605 687 656 597 645 644 644 677 543 691 547 684 645 654 566 616 645 621 626 611 683 644 645 650 677 690 689 663 607 567 644 593 684 644 611 619 652 680 621 681 658 957 956 
361 361 361 453 459 468 409 427 408 407 154 0 6 5 7 8 9 13 198 410 607 548 591 543 1040 591 576 732 592 630 550 581 582 546 550 557 548 547 624 546 654 565 548 579 553 590 572 590 633 558 577 690 581 583 577 588 558 626 548 577 751 588 589 593 554 697 546 689 551 588 581 668 617 588 614 605 620 550 589 602 705 560 547 546 572 628 673 589 642 551 587 624 620 583 557 614 554 577 811 810 
357 357 357 449 455 464 405 423 404 403 154 6 0 3 3 6 7 11 196 406 603 544 587 539 1036 587 572 728 588 626 546 577 578 542 546 553 544 543 620 542 650 561 544 575 549 586 568 586 629 554 573 686 577 579 573 584 554 622 544 573 747 584 585 589 550 693 542 685 547 584 577 664 613 584 610 601 616 546 585 598 701 556 543 542 568 624 669 585 638 547 583 620 616 579 553 610 550 573 807 806 
358 358 358 450 456 465 406 424 405 404 153 5 3 0 4 5 6 8 195 407 604 545 588 540 1037 588 573 729 589 627 547 578 579 543 547 554 545 544 621 543 651 562 545 576 550 587 569 587 630 555 574 687 578 580 574 585 555 623 545 574 748 585 586 590 551 694 543 686 548 585 578 665 614 585 611 602 617 547 586 599 702 557 544 543 569 625 670 586 639 548 584 621 617 580 554 611 551 574 808 807 
360 360 360 452 458 467 408 426 407 406 155 7 3 4 0 7 8 12 197 409 606 547 590 542 1039 590 575 731 591 629 549 580 581 545 549 556 547 546 623 545 653 564 547 578 552 589 571 589 632 557 576 689 580 582 576 587 557 625 547 576 750 587 588 592 553 696 545 688 550 587 580 667 616 587 613 604 619 549 588 601 704 559 546 545 571 627 672 588 641 550 586 623 619 582 556 613 553 576 810 809 
361 361 361 453 459 468 409 427 408 407 156 8 6 5 7 0 7 13 198 410 607 548 591 543 1039 591 576 732 592 630 550 581 582 546 550 557 548 547 624 546 654 565 548 579 553 590 572 590 633 558 577 690 581 583 577 588 558 626 548 577 751 588 589 593 554 697 546 689 551 588 581 668 617 588 614 605 620 550 589 602 705 560 547 546 572 628 673 589 642 551 587 624 620 583 557 614 554 577 811 810 
362 362 362 454 460 467 408 426 407 406 157 9 7 6 8 7 0 14 199 411 608 549 592 544 1040 592 577 733 593 631 551 582 583 547 551 558 549 548 625 547 655 566 549 580 554 591 573 591 634 559 578 691 582 584 578 589 559 627 549 578 752 589 590 594 555 698 547 690 552 589 582 669 618 589 615 606 621 551 590 603 706 561 548 547 573 629 674 590 643 552 588 625 621 584 558 615 555 578 812 811 
366 366 366 456 462 471 414 432 413 412 161 13 11 8 12 13 14 0 203 415 612 553 596 548 1044 596 581 737 597 635 555 586 587 551 555 562 553 552 629 551 659 570 553 584 558 595 577 595 638 563 582 695 586 588 582 593 563 631 553 582 756 593 594 598 559 702 551 694 556 593 586 673 622 593 619 610 625 555 594 607 710 565 552 551 577 633 678 594 647 556 592 629 625 588 562 619 559 582 816 815 
551 551 551 642 648 656 598 582 597 596 44 198 196 195 197 198 199 203 0 598 698 717 676 726 939 676 697 626 685 645 725 694 693 727 723 718 729 730 649 729 623 708 727 698 720 683 703 683 642 717 696 584 692 694 696 685 717 647 729 698 573 687 686 686 719 585 733 583 726 687 696 608 658 687 663 668 653 725 686 673 626 719 732 731 705 649 603 686 635 726 686 653 661 694 722 663 723 700 999 998 
413 413 413 501 508 516 461 479 460 459 556 410 406 407 409 410 411 415 598 0 665 605 648 600 1093 648 633 789 649 687 607 638 639 603 607 614 605 604 681 603 711 622 605 636 610 647 629 647 690 615 634 747 638 640 634 645 615 683 605 634 806 645 646 650 611 752 603 745 608 645 638 725 674 645 671 662 677 607 646 659 762 617 604 603 629 685 730 646 699 608 644 681 677 640 614 671 611 634 864 863 
625 625 625 705 710 717 662 646 659 658 656 607 603 604 606 607 608 612 698 665 0 61 26 70 451 50 43 168 29 65 69 38 37 71 67 62 73 74 63 73 89 52 71 42 64 27 47 27 68 61 40 126 36 38 40 29 61 61 73 42 189 31 30 30 63 135 77 127 70 31 40 104 72 101 77 82 67 69 30 37 140 63 76 75 49 63 109 106 77 70 56 89 75 108 66 77 67 44 323 324 
565 565 565 645 650 657 602 600 599 598 675 548 544 545 547 548 549 553 717 605 61 0 43 11 510 43 30 185 44 82 8 33 34 10 6 9 16 13 76 12 106 17 10 31 5 42 24 42 85 10 29 143 33 35 29 40 10 78 12 29 206 42 41 45 8 152 16 144 9 42 33 121 69 44 66 57 72 8 41 54 157 12 15 14 24 80 126 49 94 13 41 76 72 51 9 66 6 29 306 307 
608 608 608 688 693 700 645 629 642 641 634 591 587 588 590 591 592 596 676 648 26 43 0 52 469 32 25 144 11 41 51 20 19 53 49 44 55 56 45 55 65 34 53 24 46 9 29 9 44 43 22 102 18 20 22 11 43 43 55 24 165 13 12 12 45 111 59 103 52 13 22 86 54 83 59 64 49 51 12 13 116 45 58 57 31 45 85 88 53 52 38 71 57 90 48 59 49 26 349 350 
560 560 560 640 645 652 597 610 594 593 684 543 539 540 542 543 544 548 726 600 70 11 52 0 519 52 39 194 53 91 15 42 43 9 13 18 9 10 85 9 115 26 13 40 14 51 33 51 94 19 38 152 42 44 38 51 21 87 11 38 215 53 52 54 19 161 11 153 16 53 44 130 78 49 75 66 81 13 52 63 166 23 10 9 33 89 135 50 103 12 50 85 81 44 18 75 17 38 301 302 
1056 1056 1056 1131 1137 1145 1094 1076 1091 1090 963 1040 1036 1037 1039 1039 1040 1044 939 1093 451 510 469 519 0 469 491 339 478 438 518 487 486 520 516 511 522 523 442 522 416 501 520 491 513 476 496 476 435 510 489 385 485 487 489 478 510 440 522 491 422 480 479 479 512 458 526 444 519 480 489 433 451 480 456 461 446 518 479 466 365 512 525 524 498 442 426 479 428 519 480 446 454 487 515 456 516 493 726 727 
608 608 608 688 693 700 645 627 642 641 634 591 587 588 590 591 592 596 676 648 50 43 32 52 469 0 25 144 33 41 51 22 23 53 49 44 55 56 35 55 65 34 53 24 46 31 29 31 44 43 22 102 22 24 22 33 43 37 55 24 165 35 34 34 45 111 59 103 52 35 26 80 28 53 29 34 31 51 34 43 116 45 58 57 31 39 85 58 53 52 14 41 31 60 48 29 49 26 349 350 
593 593 593 673 678 685 630 614 627 626 655 576 572 573 575 576 577 581 697 633 43 30 25 39 491 25 0 159 18 56 30 7 8 32 28 23 34 35 50 34 80 13 32 5 25 16 8 16 59 22 3 117 7 9 3 18 22 52 34 3 180 20 19 19 24 126 38 118 31 20 11 95 43 62 40 43 46 30 19 28 131 24 37 36 10 54 100 67 68 31 13 50 46 69 27 40 28 5 336 337 
749 749 749 829 834 841 786 768 783 782 650 732 728 729 731 732 733 737 626 789 168 185 144 194 339 144 159 0 145 105 185 154 153 187 183 178 189 190 109 189 83 168 187 158 180 143 163 143 102 177 156 46 152 154 156 145 177 107 189 158 83 147 146 146 179 119 193 105 186 147 156 94 118 147 123 128 113 185 146 133 32 179 192 191 165 109 87 146 95 186 148 113 121 154 182 123 183 160 490 491 
609 609 609 689 694 701 646 630 643 642 643 592 588 589 591 592 593 597 685 649 29 44 11 53 478 33 18 145 0 40 42 11 10 46 42 35 46 47 38 46 64 27 44 17 39 2 22 2 43 36 15 101 11 13 15 4 34 38 46 15 164 4 3 3 38 110 50 102 43 4 13 79 45 76 50 57 42 44 5 12 115 36 49 48 22 38 84 79 52 43 31 62 48 81 39 52 42 19 350 351 
647 647 647 727 732 739 684 666 681 680 603 630 626 627 629 630 631 635 645 687 65 82 41 91 438 41 56 105 40 0 80 49 48 84 80 73 84 85 6 84 24 65 82 55 77 40 60 40 3 74 53 61 49 51 53 42 72 4 84 53 124 42 41 41 76 70 88 62 81 42 51 45 13 44 18 25 10 82 43 42 75 74 87 86 60 4 44 47 12 81 45 30 16 49 77 20 80 57 388 389 
567 567 567 647 652 659 604 608 601 600 683 550 546 547 549 550 551 555 725 607 69 8 51 15 518 51 30 185 42 80 0 31 32 6 2 7 10 7 76 6 104 17 2 31 5 42 24 42 83 10 29 141 33 35 29 40 8 78 6 27 204 38 39 43 6 150 8 142 1 38 31 119 67 40 64 57 72 4 41 52 155 10 9 8 22 78 124 43 92 7 41 74 70 45 7 66 6 29 308 309 
598 598 598 678 683 690 635 619 632 631 652 581 577 578 580 581 582 586 694 638 38 33 20 42 487 22 7 154 11 49 31 0 1 35 31 24 35 36 45 35 73 16 33 6 28 11 11 11 52 25 4 110 2 4 4 13 23 47 35 4 173 13 12 12 27 119 39 111 32 13 4 88 36 65 39 46 41 33 14 21 124 25 38 37 11 47 93 68 61 32 20 51 39 70 28 41 31 8 339 340 
599 599 599 679 684 691 636 620 633 632 651 582 578 579 581 582 583 587 693 639 37 34 19 43 486 23 8 153 10 48 32 1 0 36 32 25 36 37 44 36 72 17 34 7 29 10 12 10 51 26 5 109 1 3 5 12 24 46 36 5 172 12 11 11 28 118 40 110 33 12 3 87 35 66 40 47 40 34 13 20 123 26 39 38 12 46 92 69 60 33 21 52 38 71 29 42 32 9 340 341 
563 563 563 643 648 655 600 610 597 596 685 546 542 543 545 546 547 551 727 603 71 10 53 9 520 53 32 187 46 84 6 35 36 0 4 11 6 3 78 2 108 19 4 33 7 44 26 44 87 12 31 145 35 37 31 42 12 80 2 31 208 44 43 47 10 154 6 146 7 44 35 123 71 42 68 59 74 4 43 56 159 14 5 4 26 82 128 43 96 5 43 78 74 41 11 68 8 31 304 305 
567 567 567 647 652 659 604 606 601 600 681 550 546 547 549 550 551 555 723 607 67 6 49 13 516 49 28 183 42 80 2 31 32 4 0 7 10 7 74 6 104 15 4 29 3 40 22 40 83 8 27 141 31 33 27 38 8 76 6 27 204 40 39 43 6 150 10 142 3 40 31 119 67 38 64 55 70 2 39 52 155 10 9 8 22 78 124 43 92 7 39 74 70 45 7 64 4 27 308 309 
574 574 574 654 659 666 611 604 608 607 676 557 553 554 556 557 558 562 718 614 62 9 44 18 511 44 23 178 35 73 7 24 25 11 7 0 11 12 69 11 97 10 9 24 4 35 17 35 76 3 22 134 26 28 22 37 5 71 11 20 197 37 36 36 5 143 15 135 8 37 28 112 60 41 57 50 65 9 38 45 148 7 14 13 15 71 117 44 85 8 34 67 63 46 4 59 7 22 315 316 
565 565 565 645 650 657 602 615 599 598 687 548 544 545 547 548 549 553 729 605 73 16 55 9 522 55 34 189 46 84 10 35 36 6 10 11 0 5 80 4 108 21 8 35 11 46 28 46 87 14 33 145 37 39 33 48 16 82 6 31 208 48 47 47 16 154 6 146 11 48 39 123 71 44 68 61 76 10 49 56 159 18 5 4 26 82 128 43 96 5 45 78 74 37 11 70 14 33 306 307 
564 564 564 644 649 656 601 613 598 597 688 547 543 544 546 547 548 552 730 604 74 13 56 10 523 56 35 190 47 85 7 36 37 3 7 12 5 0 81 1 109 22 5 36 10 47 29 47 88 15 34 146 38 40 34 45 13 83 3 32 209 45 44 48 13 155 5 147 8 45 36 124 72 45 69 62 77 7 46 57 160 15 4 3 27 83 129 44 97 6 46 79 75 40 12 71 11 34 305 306 
641 641 641 721 726 733 678 660 675 674 607 624 620 621 623 624 625 629 649 681 63 76 45 85 442 35 50 109 38 6 76 45 44 78 74 69 80 81 0 80 30 59 78 49 71 36 54 36 9 68 47 67 43 45 47 38 68 2 80 49 130 40 39 39 70 76 84 68 77 40 47 45 9 38 14 19 4 76 39 48 81 70 83 82 56 4 50 43 18 77 39 26 12 45 73 14 74 51 382 383 
563 563 563 643 648 655 600 612 597 596 687 546 542 543 545 546 547 551 729 603 73 12 55 9 522 55 34 189 46 84 6 35 36 2 6 11 4 1 80 0 108 21 4 35 9 46 28 46 87 14 33 145 37 39 33 44 12 82 2 31 208 44 43 47 12 154 4 146 7 44 35 123 71 44 68 61 76 6 45 56 159 14 3 2 26 82 128 43 96 5 45 78 74 39 11 70 10 33 304 305 
671 671 671 751 756 763 708 690 705 704 595 654 650 651 653 654 655 659 623 711 89 106 65 115 416 65 80 83 64 24 104 73 72 108 104 97 108 109 30 108 0 89 106 79 101 64 84 64 21 98 77 39 73 75 77 66 96 28 108 77 102 66 65 65 100 62 112 48 105 66 75 37 37 68 42 49 34 106 67 52 57 98 111 110 84 28 30 65 14 105 69 32 40 73 101 44 104 81 412 413 
582 582 582 662 667 674 619 604 616 615 666 565 561 562 564 565 566 570 708 622 52 17 34 26 501 34 13 168 27 65 17 16 17 19 15 10 21 22 59 21 89 0 19 14 12 25 7 25 68 9 12 126 16 18 12 27 9 61 21 12 189 29 28 28 11 135 25 127 18 29 20 104 52 49 49 40 55 17 28 37 140 11 24 23 7 63 109 54 77 18 24 59 55 56 14 49 15 12 323 324 
565 565 565 645 650 657 602 610 599 598 685 548 544 545 547 548 549 553 727 605 71 10 53 13 520 53 32 187 44 82 2 33 34 4 4 9 8 5 78 4 106 19 0 33 7 44 26 44 85 12 31 143 35 37 31 42 10 80 4 29 206 40 41 45 8 152 6 144 3 40 33 121 69 42 66 59 74 4 43 54 157 12 7 6 24 80 126 41 94 5 43 76 72 43 9 68 8 31 306 307 
596 596 596 676 681 688 633 617 630 629 656 579 575 576 578 579 580 584 698 636 42 31 24 40 491 24 5 158 17 55 31 6 7 33 29 24 35 36 49 35 79 14 33 0 26 15 9 15 58 23 2 116 6 8 2 17 23 51 35 4 179 19 18 18 25 125 39 117 32 19 10 94 42 63 39 44 45 31 18 27 130 25 38 37 11 53 99 68 67 32 18 51 45 70 28 39 29 6 337 338 
570 570 570 650 655 662 607 604 604 603 678 553 549 550 552 553 554 558 720 610 64 5 46 14 513 46 25 180 39 77 5 28 29 7 3 4 11 10 71 9 101 12 7 26 0 37 19 37 80 5 24 138 28 30 24 37 7 73 9 24 201 39 38 40 5 147 13 139 6 39 30 116 64 39 61 52 67 5 38 49 152 9 12 11 19 75 121 44 89 8 36 71 67 46 4 61 3 24 311 312 
607 607 607 687 692 699 644 628 641 640 641 590 586 587 589 590 591 595 683 647 27 42 9 51 476 31 16 143 2 40 42 11 10 44 40 35 46 47 36 46 64 25 44 15 37 0 20 0 43 34 13 101 9 11 13 2 34 36 46 15 164 4 3 3 36 110 50 102 43 4 13 79 45 74 50 55 40 42 3 12 115 36 49 48 22 38 84 79 52 43 29 62 48 81 39 50 40 17 348 349 
589 589 589 669 674 681 626 611 623 622 661 572 568 569 571 572 573 577 703 629 47 24 29 33 496 29 8 163 22 60 24 11 12 26 22 17 28 29 54 28 84 7 26 9 19 20 0 20 63 16 7 121 11 13 7 22 16 56 28 7 184 24 23 23 18 130 32 122 25 24 15 99 47 56 44 37 50 24 23 32 135 18 31 30 4 58 104 61 72 25 19 54 50 63 21 44 22 7 330 331 
607 607 607 687 692 699 644 628 641 640 641 590 586 587 589 590 591 595 683 647 27 42 9 51 476 31 16 143 2 40 42 11 10 44 40 35 46 47 36 46 64 25 44 15 37 0 20 0 43 34 13 101 9 11 13 2 34 36 46 15 164 4 3 3 36 110 50 102 43 4 13 79 45 74 50 55 40 42 3 12 115 36 49 48 22 38 84 79 52 43 29 62 48 81 39 50 40 17 348 349 
650 650 650 730 735 742 687 669 684 683 606 633 629 630 632 633 634 638 642 690 68 85 44 94 435 44 59 102 43 3 83 52 51 87 83 76 87 88 9 87 21 68 85 58 80 43 63 43 0 77 56 58 52 54 56 45 75 7 87 56 121 45 44 44 79 73 91 59 84 45 54 48 16 47 21 28 13 85 46 39 72 77 90 89 63 7 41 50 15 84 48 33 19 52 80 23 83 60 391 392 
575 575 575 655 660 667 612 603 609 608 675 558 554 555 557 558 559 563 717 615 61 10 43 19 510 43 22 177 36 74 10 25 26 12 8 3 14 15 68 14 98 9 12 23 5 34 16 34 77 0 21 135 25 27 21 36 6 70 14 21 198 38 37 37 4 144 18 136 11 38 29 113 61 42 58 49 64 10 37 46 149 8 17 16 16 72 118 47 86 11 33 68 64 49 7 58 8 21 316 317 
594 594 594 674 679 686 631 615 628 627 654 577 573 574 576 577 578 582 696 634 40 29 22 38 489 22 3 156 15 53 29 4 5 31 27 22 33 34 47 33 77 12 31 2 24 13 7 13 56 21 0 114 4 6 0 15 21 49 33 2 177 17 16 16 23 123 37 115 30 17 8 92 40 61 37 42 43 29 16 25 128 23 36 35 9 51 97 66 65 30 16 49 43 68 26 37 27 4 335 336 
707 707 707 787 792 799 744 726 741 740 606 690 686 687 689 690 691 695 584 747 126 143 102 152 385 102 117 46 101 61 141 110 109 145 141 134 145 146 67 145 39 126 143 116 138 101 121 101 58 135 114 0 110 112 114 103 133 65 145 114 63 103 102 102 137 73 149 59 142 103 112 48 74 105 79 86 71 143 104 89 44 135 148 147 121 65 41 102 51 142 106 69 77 110 138 81 141 118 448 449 
598 598 598 678 683 690 635 619 632 631 650 581 577 578 580 581 582 586 692 638 36 33 18 42 485 22 7 152 11 49 33 2 1 35 31 26 37 38 43 37 73 16 35 6 28 9 11 9 52 25 4 110 0 2 4 11 25 45 37 6 173 13 12 12 27 119 41 111 34 13 4 88 36 65 41 46 39 33 12 21 124 27 40 39 13 47 93 70 61 34 20 53 39 72 30 41 31 8 339 340 
600 600 600 680 685 692 637 621 634 633 652 583 579 580 582 583 584 588 694 640 38 35 20 44 487 24 9 154 13 51 35 4 3 37 33 28 39 40 45 39 75 18 37 8 30 11 13 11 54 27 6 112 2 0 6 13 27 47 39 8 175 15 14 14 29 121 43 113 36 15 6 90 38 67 43 48 41 35 14 23 126 29 42 41 15 49 95 72 63 36 22 55 41 74 32 43 33 10 341 342 
594 594 594 674 679 686 631 615 628 627 654 577 573 574 576 577 578 582 696 634 40 29 22 38 489 22 3 156 15 53 29 4 5 31 27 22 33 34 47 33 77 12 31 2 24 13 7 13 56 21 0 114 4 6 0 15 21 49 33 2 177 17 16 16 23 123 37 115 30 17 8 92 40 61 37 42 43 29 16 25 128 23 36 35 9 51 97 66 65 30 16 49 43 68 26 37 27 4 335 336 
605 605 605 685 690 697 642 627 639 638 643 588 584 585 587 588 589 593 685 645 29 40 11 51 478 33 18 145 4 42 40 13 12 42 38 37 48 45 38 44 66 27 42 17 37 2 22 2 45 36 15 103 11 13 15 0 32 38 44 17 166 2 1 5 34 112 48 104 41 2 11 81 47 76 52 57 42 40 1 14 117 34 47 46 24 40 86 81 54 45 31 64 50 83 41 52 38 19 346 347 
575 575 575 655 660 667 612 600 609 608 675 558 554 555 557 558 559 563 717 615 61 10 43 21 510 43 22 177 34 72 8 23 24 12 8 5 16 13 68 12 96 9 10 23 7 34 16 34 75 6 21 133 25 27 21 32 0 70 12 19 196 32 31 35 4 142 16 134 9 32 23 111 59 46 56 49 64 10 33 44 147 2 15 14 14 70 116 49 84 13 33 66 62 51 9 58 8 21 316 317 
643 643 643 723 728 735 680 662 677 676 605 626 622 623 625 626 627 631 647 683 61 78 43 87 440 37 52 107 38 4 78 47 46 80 76 71 82 83 2 82 28 61 80 51 73 36 56 36 7 70 49 65 45 47 49 38 70 0 82 51 128 40 39 39 72 74 86 66 79 40 49 43 11 40 16 21 6 78 39 46 79 72 85 84 58 2 48 45 16 79 41 28 14 47 75 16 76 53 384 385 
565 565 565 645 650 657 602 612 599 598 687 548 544 545 547 548 549 553 729 605 73 12 55 11 522 55 34 189 46 84 6 35 36 2 6 11 6 3 80 2 108 21 4 35 9 46 28 46 87 14 33 145 37 39 33 44 12 82 0 31 208 44 43 47 12 154 6 146 5 44 33 121 71 44 66 61 76 6 45 56 159 12 5 4 26 82 128 43 96 5 45 78 74 39 11 70 10 33 306 307 
594 594 594 674 679 686 631 615 628 627 656 577 573 574 576 577 578 582 698 634 42 29 24 38 491 24 3 158 15 53 27 4 5 31 27 20 31 32 49 31 77 12 29 4 24 15 7 15 56 21 2 114 6 8 2 17 19 51 31 0 177 17 16 16 23 123 35 115 28 17 8 92 40 61 37 42 45 29 18 25 128 21 34 33 7 51 97 64 65 28 16 47 43 66 24 39 27 4 335 336 
768 768 768 847 852 860 804 786 801 800 597 751 747 748 750 751 752 756 573 806 189 206 165 215 422 165 180 83 164 124 204 173 172 208 204 197 208 209 130 208 102 189 206 179 201 164 184 164 121 198 177 63 173 175 177 166 196 128 208 177 0 166 165 165 200 54 212 62 205 166 175 87 137 168 142 149 134 206 167 152 81 198 211 210 184 128 82 165 114 205 169 132 140 173 201 144 204 181 511 512 
605 605 605 685 690 697 642 629 639 638 645 588 584 585 587 588 589 593 687 645 31 42 13 53 480 35 20 147 4 42 38 13 12 44 40 37 48 45 40 44 66 29 40 19 39 4 24 4 45 38 17 103 13 15 17 2 32 40 44 17 166 0 1 5 34 112 46 104 39 0 11 81 47 78 52 59 44 42 3 14 117 34 47 46 24 40 86 81 54 45 33 64 50 83 41 54 40 21 346 347 
606 606 606 686 691 698 643 628 640 639 644 589 585 586 588 589 590 594 686 646 30 41 12 52 479 34 19 146 3 41 39 12 11 43 39 36 47 44 39 43 65 28 41 18 38 3 23 3 44 37 16 102 12 14 16 1 31 39 43 16 165 1 0 4 35 111 47 103 40 1 10 80 46 77 51 58 43 41 2 13 116 33 46 45 23 39 85 80 53 44 32 63 49 82 40 53 39 20 347 348 
610 610 610 690 695 702 647 631 644 643 644 593 589 590 592 593 594 598 686 650 30 45 12 54 479 34 19 146 3 41 43 12 11 47 43 36 47 48 39 47 65 28 45 18 40 3 23 3 44 37 16 102 12 14 16 5 35 39 47 16 165 5 4 0 39 111 47 103 44 5 14 80 46 77 51 58 43 45 6 13 116 37 50 49 23 39 85 80 53 44 32 63 49 82 40 53 43 20 351 352 
571 571 571 651 656 663 608 602 605 604 677 554 550 551 553 554 555 559 719 611 63 8 45 19 512 45 24 179 38 76 6 27 28 10 6 5 16 13 70 12 100 11 8 25 5 36 18 36 79 4 23 137 27 29 23 34 4 72 12 23 200 34 35 39 0 146 14 138 7 34 27 115 63 44 60 51 66 8 35 48 151 6 15 14 18 74 120 49 88 13 35 70 66 51 9 60 6 23 312 313 
714 714 714 793 798 806 750 732 747 746 543 697 693 694 696 697 698 702 585 752 135 152 111 161 458 111 126 119 110 70 150 119 118 154 150 143 154 155 76 154 62 135 152 125 147 110 130 110 73 144 123 73 119 121 123 112 142 74 154 123 54 112 111 111 146 0 158 14 151 112 121 33 83 114 88 95 80 152 113 112 117 144 157 156 130 74 34 111 60 151 115 78 86 119 147 90 150 127 457 458 
563 563 563 643 648 655 600 616 597 596 691 546 542 543 545 546 547 551 733 603 77 16 59 11 526 59 38 193 50 88 8 39 40 6 10 15 6 5 84 4 112 25 6 39 13 50 32 50 91 18 37 149 41 43 37 48 16 86 6 35 212 46 47 47 14 158 0 150 9 46 39 127 75 48 72 65 80 10 49 60 163 18 5 4 30 86 132 47 100 9 49 82 78 41 15 74 14 37 304 305 
706 706 706 785 790 798 742 724 739 738 547 689 685 686 688 689 690 694 583 745 127 144 103 153 444 103 118 105 102 62 142 111 110 146 142 135 146 147 68 146 48 127 144 117 139 102 122 102 59 136 115 59 111 113 115 104 134 66 146 115 62 104 103 103 138 14 150 0 143 104 113 25 75 106 80 87 72 144 105 98 103 136 149 148 122 66 20 103 52 143 107 70 78 111 139 82 142 119 449 450 
568 568 568 648 653 660 605 609 602 601 684 551 547 548 550 551 552 556 726 608 70 9 52 16 519 52 31 186 43 81 1 32 33 7 3 8 11 8 77 7 105 18 3 32 6 43 25 43 84 11 30 142 34 36 30 41 9 79 5 28 205 39 40 44 7 151 9 143 0 39 30 118 68 41 63 58 73 5 42 53 156 9 10 9 23 79 125 44 93 8 42 75 71 44 8 67 7 30 309 310 
605 605 605 685 690 697 642 629 639 638 645 588 584 585 587 588 589 593 687 645 31 42 13 53 480 35 20 147 4 42 38 13 12 44 40 37 48 45 40 44 66 29 40 19 39 4 24 4 45 38 17 103 13 15 17 2 32 40 44 17 166 0 1 5 34 112 46 104 39 0 11 81 47 78 52 59 44 42 3 14 117 34 47 46 24 40 86 81 54 45 33 64 50 83 41 54 40 21 346 347 
598 598 598 678 683 690 635 620 632 631 654 581 577 578 580 581 582 586 696 638 40 33 22 44 489 26 11 156 13 51 31 4 3 35 31 28 39 36 47 35 75 20 33 10 30 13 15 13 54 29 8 112 4 6 8 11 23 49 33 8 175 11 10 14 27 121 39 113 30 11 0 88 38 69 41 50 43 33 12 23 126 23 38 37 15 49 95 72 63 36 24 55 41 72 32 45 31 12 339 340 
685 685 685 765 770 777 722 704 719 718 566 668 664 665 667 668 669 673 608 725 104 121 86 130 433 80 95 94 79 45 119 88 87 123 119 112 123 124 45 123 37 104 121 94 116 79 99 79 48 113 92 48 88 90 92 81 111 43 121 92 87 81 80 80 115 33 127 25 118 81 88 0 52 83 55 64 49 121 82 87 92 111 126 125 99 43 9 80 35 120 84 47 55 86 116 59 119 96 426 427 
634 634 634 714 719 726 671 653 668 667 616 617 613 614 616 617 618 622 658 674 72 69 54 78 451 28 43 118 45 13 67 36 35 71 67 60 71 72 9 71 37 52 69 42 64 45 47 45 16 61 40 74 36 38 40 47 59 11 71 40 137 47 46 46 63 83 75 75 68 47 38 52 0 31 5 12 5 69 48 55 88 61 74 73 47 11 57 34 25 68 32 17 3 36 64 7 67 44 375 376 
605 605 605 685 690 697 642 641 639 638 645 588 584 585 587 588 589 593 687 645 101 44 83 49 480 53 62 147 76 44 40 65 66 42 38 41 44 45 38 44 68 49 42 63 39 74 56 74 47 42 61 105 65 67 61 76 46 40 44 61 168 78 77 77 44 114 48 106 41 78 69 83 31 0 28 19 34 40 77 86 119 48 47 46 56 42 88 7 56 41 49 38 34 9 41 28 42 61 346 347 
631 631 631 711 716 723 668 650 665 664 621 614 610 611 613 614 615 619 663 671 77 66 59 75 456 29 40 123 50 18 64 39 40 68 64 57 68 69 14 68 42 49 66 39 61 50 44 50 21 58 37 79 41 43 37 52 56 16 66 37 142 52 51 51 60 88 72 80 63 52 41 55 5 28 0 9 10 66 53 60 93 56 71 70 44 16 62 31 30 65 29 14 8 31 61 4 64 41 372 373 
622 622 622 702 707 714 659 642 656 655 626 605 601 602 604 605 606 610 668 662 82 57 64 66 461 34 43 128 57 25 57 46 47 59 55 50 61 62 19 61 49 40 59 44 52 55 37 55 28 49 42 86 46 48 42 57 49 21 61 42 149 59 58 58 51 95 65 87 58 59 50 64 12 19 9 0 15 57 58 67 100 51 64 63 37 23 69 24 37 58 30 19 15 26 54 9 55 42 363 364 
637 637 637 717 722 729 674 656 671 670 611 620 616 617 619 620 621 625 653 677 67 72 49 81 446 31 46 113 42 10 72 41 40 74 70 65 76 77 4 76 34 55 74 45 67 40 50 40 13 64 43 71 39 41 43 42 64 6 76 45 134 44 43 43 66 80 80 72 73 44 43 49 5 34 10 15 0 72 43 52 85 66 79 78 52 8 54 39 22 73 35 22 8 41 69 10 70 47 378 379 
567 567 567 647 652 659 604 608 601 600 683 550 546 547 549 550 551 555 725 607 69 8 51 13 518 51 30 185 44 82 4 33 34 4 2 9 10 7 76 6 106 17 4 31 5 42 24 42 85 10 29 143 33 35 29 40 10 78 6 29 206 42 41 45 8 152 10 144 5 42 33 121 69 40 66 57 72 0 41 54 157 12 9 8 24 80 126 43 94 7 41 76 72 45 9 66 6 29 308 309 
606 606 606 686 691 698 643 628 640 639 644 589 585 586 588 589 590 594 686 646 30 41 12 52 479 34 19 146 5 43 41 14 13 43 39 38 49 46 39 45 67 28 43 18 38 3 23 3 46 37 16 104 12 14 16 1 33 39 45 18 167 3 2 6 35 113 49 105 42 3 12 82 48 77 53 58 43 41 0 15 118 35 48 47 25 41 87 82 55 46 32 65 51 84 42 53 39 20 347 348 
619 619 619 699 704 711 656 640 653 652 645 602 598 599 601 602 603 607 673 659 37 54 13 63 466 43 28 133 12 42 52 21 20 56 52 45 56 57 48 56 52 37 54 27 49 12 32 12 39 46 25 89 21 23 25 14 44 46 56 25 152 14 13 13 48 112 60 98 53 14 23 87 55 86 60 67 52 54 15 0 103 46 59 58 32 46 80 89 54 53 41 72 58 91 49 62 52 29 360 361 
722 722 722 802 807 814 759 741 756 755 650 705 701 702 704 705 706 710 626 762 140 157 116 166 365 116 131 32 115 75 155 124 123 159 155 148 159 160 81 159 57 140 157 130 152 115 135 115 72 149 128 44 124 126 128 117 147 79 159 128 81 117 116 116 151 117 163 103 156 117 126 92 88 119 93 100 85 157 118 103 0 149 162 161 135 79 83 116 63 154 120 83 91 124 152 95 155 132 463 464 
577 577 577 657 662 669 614 602 611 610 677 560 556 557 559 560 561 565 719 617 63 12 45 23 512 45 24 179 36 74 10 25 26 14 10 7 18 15 70 14 98 11 12 25 9 36 18 36 77 8 23 135 27 29 23 34 2 72 12 21 198 34 33 37 6 144 18 136 9 34 23 111 61 48 56 51 66 12 35 46 149 0 17 16 16 72 118 51 86 15 35 68 64 51 11 60 10 23 318 319 
564 564 564 644 649 656 601 615 598 597 690 547 543 544 546 547 548 552 732 604 76 15 58 10 525 58 37 192 49 87 9 38 39 5 9 14 5 4 83 3 111 24 7 38 12 49 31 49 90 17 36 148 40 42 36 47 15 85 5 34 211 47 46 50 15 157 5 149 10 47 38 126 74 47 71 64 79 9 48 59 162 17 0 3 29 85 131 46 99 8 48 81 77 40 14 73 13 36 305 306 
563 563 563 643 648 655 600 614 597 596 689 546 542 543 545 546 547 551 731 603 75 14 57 9 524 57 36 191 48 86 8 37 38 4 8 13 4 3 82 2 110 23 6 37 11 48 30 48 89 16 35 147 39 41 35 46 14 84 4 33 210 46 45 49 14 156 4 148 9 46 37 125 73 46 70 63 78 8 47 58 161 16 3 0 28 84 130 45 98 7 47 80 76 39 13 72 12 35 303 304 
589 589 589 669 674 681 626 611 623 622 663 572 568 569 571 572 573 577 705 629 49 24 31 33 498 31 10 165 22 60 22 11 12 26 22 15 26 27 56 26 84 7 24 11 19 22 4 22 63 16 9 121 13 15 9 24 14 58 26 7 184 24 23 23 18 130 30 122 23 24 15 99 47 56 44 37 52 24 25 32 135 16 29 28 0 56 104 59 72 23 21 54 50 61 19 46 22 9 330 331 
645 645 645 725 730 737 682 664 679 678 607 628 624 625 627 628 629 633 649 685 63 80 45 89 442 39 54 109 38 4 78 47 46 82 78 71 82 83 4 82 28 63 80 53 75 38 58 38 7 72 51 65 47 49 51 40 70 2 82 51 128 40 39 39 74 74 86 66 79 40 49 43 11 42 16 23 8 80 41 46 79 72 85 84 56 0 48 45 16 79 43 28 14 47 75 18 78 55 386 387 
690 690 690 770 775 782 727 709 724 723 567 673 669 670 672 673 674 678 603 730 109 126 85 135 426 85 100 87 84 44 124 93 92 128 124 117 128 129 50 128 30 109 126 99 121 84 104 84 41 118 97 41 93 95 97 86 116 48 128 97 82 86 85 85 120 34 132 20 125 86 95 9 57 88 62 69 54 126 87 80 83 118 131 130 104 48 0 85 32 123 89 52 60 93 121 64 124 101 431 432 
606 606 606 686 691 698 643 646 640 639 644 589 585 586 588 589 590 594 686 646 106 49 88 50 479 58 67 146 79 47 43 68 69 43 43 44 43 44 43 43 65 54 41 68 44 79 61 79 50 47 66 102 70 72 66 81 49 45 43 64 165 81 80 80 49 111 47 103 44 81 72 80 34 7 31 24 39 43 82 89 116 51 46 45 59 45 85 0 53 40 54 35 37 8 44 33 47 66 347 348 
659 659 659 739 744 751 696 678 693 692 593 642 638 639 641 642 643 647 635 699 77 94 53 103 428 53 68 95 52 12 92 61 60 96 92 85 96 97 18 96 14 77 94 67 89 52 72 52 15 86 65 51 61 63 65 54 84 16 96 65 114 54 53 53 88 60 100 52 93 54 63 35 25 56 30 37 22 94 55 54 63 86 99 98 72 16 32 53 0 91 57 20 28 61 89 32 92 69 400 401 
568 568 568 648 653 660 605 612 602 601 684 551 547 548 550 551 552 556 726 608 70 13 52 12 519 52 31 186 43 81 7 32 33 5 7 8 5 6 77 5 105 18 5 32 8 43 25 43 84 11 30 142 34 36 30 45 13 79 5 28 205 45 44 44 13 151 9 143 8 45 36 120 68 41 65 58 73 7 46 53 154 15 8 7 23 79 123 40 91 0 42 75 71 40 8 67 11 30 309 310 
604 604 604 684 689 696 641 624 638 637 644 587 583 584 586 587 588 592 686 644 56 41 38 50 480 14 13 148 31 45 41 20 21 43 39 34 45 46 39 45 69 24 43 18 36 29 19 29 48 33 16 106 20 22 16 31 33 41 45 16 169 33 32 32 35 115 49 107 42 33 24 84 32 49 29 30 35 41 32 41 120 35 48 47 21 43 89 54 57 42 0 39 35 56 38 29 39 16 347 348 
641 641 641 721 726 733 678 660 675 674 611 624 620 621 623 624 625 629 653 681 89 76 71 85 446 41 50 113 62 30 74 51 52 78 74 67 78 79 26 78 32 59 76 51 71 62 54 62 33 68 49 69 53 55 49 64 66 28 78 47 132 64 63 63 70 78 82 70 75 64 55 47 17 38 14 19 22 76 65 72 83 68 81 80 54 28 52 35 20 75 39 0 20 43 71 16 74 51 382 383 
637 637 637 717 722 729 674 656 671 670 619 620 616 617 619 620 621 625 661 677 75 72 57 81 454 31 46 121 48 16 70 39 38 74 70 63 74 75 12 74 40 55 72 45 67 48 50 48 19 64 43 77 39 41 43 50 62 14 74 43 140 50 49 49 66 86 78 78 71 50 41 55 3 34 8 15 8 72 51 58 91 64 77 76 50 14 60 37 28 71 35 20 0 39 67 10 70 47 378 379 
600 600 600 680 685 692 637 648 634 633 652 583 579 580 582 583 584 588 694 640 108 51 90 44 487 60 69 154 81 49 45 70 71 41 45 46 37 40 45 39 73 56 43 70 46 81 63 81 52 49 68 110 72 74 68 83 51 47 39 66 173 83 82 82 51 119 41 111 44 83 72 86 36 9 31 26 41 45 84 91 124 51 40 39 61 47 93 8 61 40 56 43 39 0 46 35 49 68 341 342 
574 574 574 654 659 666 611 608 608 607 680 557 553 554 556 557 558 562 722 614 66 9 48 18 515 48 27 182 39 77 7 28 29 11 7 4 11 12 73 11 101 14 9 28 4 39 21 39 80 7 26 138 30 32 26 41 9 75 11 24 201 41 40 40 9 147 15 139 8 41 32 116 64 41 61 54 69 9 42 49 152 11 14 13 19 75 121 44 89 8 38 71 67 46 0 63 7 26 315 316 
631 631 631 711 716 723 668 650 665 664 621 614 610 611 613 614 615 619 663 671 77 66 59 75 456 29 40 123 52 20 66 41 42 68 64 59 70 71 14 70 44 49 68 39 61 50 44 50 23 58 37 81 41 43 37 52 58 16 70 39 144 54 53 53 60 90 74 82 67 54 45 59 7 28 4 9 10 66 53 62 95 60 73 72 46 18 64 33 32 67 29 16 10 35 63 0 60 41 372 373 
571 571 571 651 656 663 608 606 605 604 681 554 550 551 553 554 555 559 723 611 67 6 49 17 516 49 28 183 42 80 6 31 32 8 4 7 14 11 74 10 104 15 8 29 3 40 22 40 83 8 27 141 31 33 27 38 8 76 10 27 204 40 39 43 6 150 14 142 7 40 31 119 67 42 64 55 70 6 39 52 155 10 13 12 22 78 124 47 92 11 39 74 70 49 7 60 0 27 312 313 
594 594 594 674 679 686 631 616 628 627 658 577 573 574 576 577 578 582 700 634 44 29 26 38 493 26 5 160 19 57 29 8 9 31 27 22 33 34 51 33 81 12 31 6 24 17 7 17 60 21 4 118 8 10 4 19 21 53 33 4 181 21 20 20 23 127 37 119 30 21 12 96 44 61 41 42 47 29 20 29 132 23 36 35 9 55 101 66 69 30 16 51 47 68 26 41 27 0 335 336 
820 820 820 903 909 916 861 877 858 857 957 811 807 808 810 811 812 816 999 864 323 306 349 301 726 349 336 490 350 388 308 339 340 304 308 315 306 305 382 304 412 323 306 337 311 348 330 348 391 316 335 448 339 341 335 346 316 384 306 335 511 346 347 351 312 457 304 449 309 346 339 426 375 346 372 363 378 308 347 360 463 318 305 303 330 386 431 347 400 309 347 382 378 341 315 372 312 335 0 3 
821 821 821 904 910 917 862 878 859 858 956 810 806 807 809 810 811 815 998 863 324 307 350 302 727 350 337 491 351 389 309 340 341 305 309 316 307 306 383 305 413 324 307 338 312 349 331 349 392 317 336 449 340 342 336 347 317 385 307 336 512 347 348 352 313 458 305 450 310 347 340 427 376 347 373 364 379 309 348 361 464 319 306 304 331 387 432 348 401 310 348 383 379 342 316 373 313 336 3 0 
